%YAML 1.1
%TAG !u! tag:unity3d.com,2011:
--- !u!74 &7400000
AnimationClip:
  m_ObjectHideFlags: 0
  m_PrefabParentObject: {fileID: 0}
  m_PrefabInternal: {fileID: 0}
  m_Name: player3Walk
  serializedVersion: 6
  m_Legacy: 0
  m_Compressed: 0
  m_UseHighQualityCurve: 1
  m_RotationCurves: []
  m_CompressedRotationCurves: []
  m_EulerCurves: []
  m_PositionCurves: []
  m_ScaleCurves: []
  m_FloatCurves: []
  m_PPtrCurves:
  - curve:
    - time: 0
      value: {fileID: 21300000, guid: f785906e4680965478f03c611f7a4d06, type: 3}
    - time: 0.033333335
      value: {fileID: 21300000, guid: 3e17e4cacaf2cff4c8d861a7cc106cfc, type: 3}
    - time: 0.06666667
      value: {fileID: 21300000, guid: bbd03712d2e579a4ea124b6350557e22, type: 3}
    - time: 0.1
      value: {fileID: 21300000, guid: eb1797793b7409048aa0d3f6f884c577, type: 3}
    - time: 0.13333334
      value: {fileID: 21300000, guid: cabf5caead31f5a41b2834c7ac4dac7c, type: 3}
    - time: 0.16666667
      value: {fileID: 21300000, guid: 75ba4b63b3f311546a347ee18dff90af, type: 3}
    - time: 0.2
      value: {fileID: 21300000, guid: c18d9bfa4f8d4c0448b6a5146f30dad1, type: 3}
    - time: 0.23333333
      value: {fileID: 21300000, guid: 5a1c78ed7f6df08479dd2b5a33ecf655, type: 3}
    - time: 0.26666668
      value: {fileID: 21300000, guid: e583b9f4d0471094b8218cb3bfd55f18, type: 3}
    - time: 0.3
      value: {fileID: 21300000, guid: b581a0e1c2f4cab49b1358e1f48464a7, type: 3}
    - time: 0.33333334
      value: {fileID: 21300000, guid: a258db7420f501f4288007bfcdc1c697, type: 3}
    - time: 0.36666667
      value: {fileID: 21300000, guid: 2893a6e51ad84fe4cb323cafe1492083, type: 3}
    - time: 0.4
      value: {fileID: 21300000, guid: 66522e2cc6dbc864199d5caddf140c57, type: 3}
    - time: 0.43333334
      value: {fileID: 21300000, guid: c6630760c4158a8488a5700639b76495, type: 3}
    - time: 0.46666667
      value: {fileID: 21300000, guid: 843c392640a71c941971b47dd41f1451, type: 3}
    - time: 0.5
      value: {fileID: 21300000, guid: e4540b4db2064a742bfa9f4887e15af9, type: 3}
    - time: 0.53333336
      value: {fileID: 21300000, guid: cdca2a63975ce0e4a8293590ffe6162f, type: 3}
    - time: 0.56666666
      value: {fileID: 21300000, guid: 6a6356ebab891654abca102ac69391b9, type: 3}
    - time: 0.6
      value: {fileID: 21300000, guid: 2fc178b5fd9340348a8430fa16779428, type: 3}
    - time: 0.6333333
      value: {fileID: 21300000, guid: af37895ba1554cd46b2a4145a373df5e, type: 3}
    - time: 0.6666667
      value: {fileID: 21300000, guid: 6672074dd06f81c4383b323220abfc7a, type: 3}
    - time: 0.7
      value: {fileID: 21300000, guid: 2b2d5c3dc82d4984ca78f88c11c80388, type: 3}
    - time: 0.73333335
      value: {fileID: 21300000, guid: abde532d83361f540b5afa4c90b740f6, type: 3}
    - time: 0.76666665
      value: {fileID: 21300000, guid: 6502ba97cfbcd834aa625b8348bb6d26, type: 3}
    attribute: m_Sprite
    path: 
    classID: 212
    script: {fileID: 0}
  m_SampleRate: 30
  m_WrapMode: 0
  m_Bounds:
    m_Center: {x: 0, y: 0, z: 0}
    m_Extent: {x: 0, y: 0, z: 0}
  m_ClipBindingConstant:
    genericBindings:
    - serializedVersion: 2
      path: 0
      attribute: 0
      script: {fileID: 0}
      typeID: 212
      customType: 23
      isPPtrCurve: 1
    pptrCurveMapping:
    - {fileID: 21300000, guid: f785906e4680965478f03c611f7a4d06, type: 3}
    - {fileID: 21300000, guid: 3e17e4cacaf2cff4c8d861a7cc106cfc, type: 3}
    - {fileID: 21300000, guid: bbd03712d2e579a4ea124b6350557e22, type: 3}
    - {fileID: 21300000, guid: eb1797793b7409048aa0d3f6f884c577, type: 3}
    - {fileID: 21300000, guid: cabf5caead31f5a41b2834c7ac4dac7c, type: 3}
    - {fileID: 21300000, guid: 75ba4b63b3f311546a347ee18dff90af, type: 3}
    - {fileID: 21300000, guid: c18d9bfa4f8d4c0448b6a5146f30dad1, type: 3}
    - {fileID: 21300000, guid: 5a1c78ed7f6df08479dd2b5a33ecf655, type: 3}
    - {fileID: 21300000, guid: e583b9f4d0471094b8218cb3bfd55f18, type: 3}
    - {fileID: 21300000, guid: b581a0e1c2f4cab49b1358e1f48464a7, type: 3}
    - {fileID: 21300000, guid: a258db7420f501f4288007bfcdc1c697, type: 3}
    - {fileID: 21300000, guid: 2893a6e51ad84fe4cb323cafe1492083, type: 3}
    - {fileID: 21300000, guid: 66522e2cc6dbc864199d5caddf140c57, type: 3}
    - {fileID: 21300000, guid: c6630760c4158a8488a5700639b76495, type: 3}
    - {fileID: 21300000, guid: 843c392640a71c941971b47dd41f1451, type: 3}
    - {fileID: 21300000, guid: e4540b4db2064a742bfa9f4887e15af9, type: 3}
    - {fileID: 21300000, guid: cdca2a63975ce0e4a8293590ffe6162f, type: 3}
    - {fileID: 21300000, guid: 6a6356ebab891654abca102ac69391b9, type: 3}
    - {fileID: 21300000, guid: 2fc178b5fd9340348a8430fa16779428, type: 3}
    - {fileID: 21300000, guid: af37895ba1554cd46b2a4145a373df5e, type: 3}
    - {fileID: 21300000, guid: 6672074dd06f81c4383b323220abfc7a, type: 3}
    - {fileID: 21300000, guid: 2b2d5c3dc82d4984ca78f88c11c80388, type: 3}
    - {fileID: 21300000, guid: abde532d83361f540b5afa4c90b740f6, type: 3}
    - {fileID: 21300000, guid: 6502ba97cfbcd834aa625b8348bb6d26, type: 3}
  m_AnimationClipSettings:
    serializedVersion: 2
    m_AdditiveReferencePoseClip: {fileID: 0}
    m_AdditiveReferencePoseTime: 0
    m_StartTime: 0
    m_StopTime: 0.8
    m_OrientationOffsetY: 0
    m_Level: 0
    m_CycleOffset: 0
    m_HasAdditiveReferencePose: 0
    m_LoopTime: 1
    m_LoopBlend: 0
    m_LoopBlendOrientation: 0
    m_LoopBlendPositionY: 0
    m_LoopBlendPositionXZ: 0
    m_KeepOriginalOrientation: 0
    m_KeepOriginalPositionY: 1
    m_KeepOriginalPositionXZ: 0
    m_HeightFromFeet: 0
    m_Mirror: 0
  m_EditorCurves: []
  m_EulerEditorCurves: []
  m_HasGenericRootTransform: 0
  m_HasMotionFloatCurves: 0
  m_GenerateMotionCurves: 0
  m_Events:
  - time: 0.4
    functionName: PlayFootsteps
    data: 
    objectReferenceParameter: {fileID: 0}
    floatParameter: 0
    intParameter: 0
    messageOptions: 0
  - time: 0.76666665
    functionName: PlayFootsteps
    data: 
    objectReferenceParameter: {fileID: 0}
    floatParameter: 0
    intParameter: 0
    messageOptions: 0
