%YAML 1.1
%TAG !u! tag:unity3d.com,2011:
--- !u!74 &7400000
AnimationClip:
  m_ObjectHideFlags: 0
  m_PrefabParentObject: {fileID: 0}
  m_PrefabInternal: {fileID: 0}
  m_Name: player5Walk
  serializedVersion: 6
  m_Legacy: 0
  m_Compressed: 0
  m_UseHighQualityCurve: 1
  m_RotationCurves: []
  m_CompressedRotationCurves: []
  m_EulerCurves: []
  m_PositionCurves: []
  m_ScaleCurves: []
  m_FloatCurves: []
  m_PPtrCurves:
  - curve:
    - time: 0
      value: {fileID: 21300000, guid: 41636eea4fede1a45b93b34e8c8190dd, type: 3}
    - time: 0.033333335
      value: {fileID: 21300000, guid: 293c6729ced87c8419a3aaa10af5ea03, type: 3}
    - time: 0.06666667
      value: {fileID: 21300000, guid: 6e25ddf469b36924a989065ca17324a2, type: 3}
    - time: 0.1
      value: {fileID: 21300000, guid: ae6e3a4a602982a4a9b4b8e6bb92d577, type: 3}
    - time: 0.13333334
      value: {fileID: 21300000, guid: 134835850c93d204eb73fec018347a87, type: 3}
    - time: 0.16666667
      value: {fileID: 21300000, guid: 4fa5241510e93d04db76099f34346fd1, type: 3}
    - time: 0.2
      value: {fileID: 21300000, guid: 2f5157aeb7eba8445a2896518f9f528a, type: 3}
    - time: 0.23333333
      value: {fileID: 21300000, guid: 439b9e8478543ec41b1e16433e2f569a, type: 3}
    - time: 0.26666668
      value: {fileID: 21300000, guid: e4fff57f9c68f6047871796394761813, type: 3}
    - time: 0.3
      value: {fileID: 21300000, guid: 453753af45cea3f49908285929715216, type: 3}
    - time: 0.33333334
      value: {fileID: 21300000, guid: 4533e2266a216b4498db7824bd616768, type: 3}
    - time: 0.36666667
      value: {fileID: 21300000, guid: 0042a494db1e983408807d5040948b7b, type: 3}
    - time: 0.4
      value: {fileID: 21300000, guid: 51a540f9aa82bad4f8acf35707a8aedb, type: 3}
    - time: 0.43333334
      value: {fileID: 21300000, guid: 780f3ea73b5cb6e4ebda08fc7f3437de, type: 3}
    - time: 0.46666667
      value: {fileID: 21300000, guid: 2c0c8b10fb4d7e247800eeb455b1101a, type: 3}
    - time: 0.5
      value: {fileID: 21300000, guid: 21ff349ccdd479843990b197b32ce7c6, type: 3}
    - time: 0.53333336
      value: {fileID: 21300000, guid: f0f11623f2c8cd04698991f7d8b59312, type: 3}
    - time: 0.56666666
      value: {fileID: 21300000, guid: 32e75d7c64664174f9ac6a0b7b79d9af, type: 3}
    - time: 0.6
      value: {fileID: 21300000, guid: e6af9df0473cc244b88412893a9d731f, type: 3}
    - time: 0.6333333
      value: {fileID: 21300000, guid: 8edd5239d178cef41b66b59d95de2681, type: 3}
    - time: 0.6666667
      value: {fileID: 21300000, guid: 32ff714eb29abca43b5603856f20ad4a, type: 3}
    - time: 0.7
      value: {fileID: 21300000, guid: df852a0b31be45d49bf407e981aa27a4, type: 3}
    - time: 0.73333335
      value: {fileID: 21300000, guid: 5c09e6cdba325fc4ba1ed82322df59a0, type: 3}
    - time: 0.76666665
      value: {fileID: 21300000, guid: ca821a4041e77914c853e2a961d22f28, type: 3}
    attribute: m_Sprite
    path: 
    classID: 212
    script: {fileID: 0}
  m_SampleRate: 60
  m_WrapMode: 0
  m_Bounds:
    m_Center: {x: 0, y: 0, z: 0}
    m_Extent: {x: 0, y: 0, z: 0}
  m_ClipBindingConstant:
    genericBindings:
    - serializedVersion: 2
      path: 0
      attribute: 0
      script: {fileID: 0}
      typeID: 212
      customType: 23
      isPPtrCurve: 1
    pptrCurveMapping:
    - {fileID: 21300000, guid: 41636eea4fede1a45b93b34e8c8190dd, type: 3}
    - {fileID: 21300000, guid: 293c6729ced87c8419a3aaa10af5ea03, type: 3}
    - {fileID: 21300000, guid: 6e25ddf469b36924a989065ca17324a2, type: 3}
    - {fileID: 21300000, guid: ae6e3a4a602982a4a9b4b8e6bb92d577, type: 3}
    - {fileID: 21300000, guid: 134835850c93d204eb73fec018347a87, type: 3}
    - {fileID: 21300000, guid: 4fa5241510e93d04db76099f34346fd1, type: 3}
    - {fileID: 21300000, guid: 2f5157aeb7eba8445a2896518f9f528a, type: 3}
    - {fileID: 21300000, guid: 439b9e8478543ec41b1e16433e2f569a, type: 3}
    - {fileID: 21300000, guid: e4fff57f9c68f6047871796394761813, type: 3}
    - {fileID: 21300000, guid: 453753af45cea3f49908285929715216, type: 3}
    - {fileID: 21300000, guid: 4533e2266a216b4498db7824bd616768, type: 3}
    - {fileID: 21300000, guid: 0042a494db1e983408807d5040948b7b, type: 3}
    - {fileID: 21300000, guid: 51a540f9aa82bad4f8acf35707a8aedb, type: 3}
    - {fileID: 21300000, guid: 780f3ea73b5cb6e4ebda08fc7f3437de, type: 3}
    - {fileID: 21300000, guid: 2c0c8b10fb4d7e247800eeb455b1101a, type: 3}
    - {fileID: 21300000, guid: 21ff349ccdd479843990b197b32ce7c6, type: 3}
    - {fileID: 21300000, guid: f0f11623f2c8cd04698991f7d8b59312, type: 3}
    - {fileID: 21300000, guid: 32e75d7c64664174f9ac6a0b7b79d9af, type: 3}
    - {fileID: 21300000, guid: e6af9df0473cc244b88412893a9d731f, type: 3}
    - {fileID: 21300000, guid: 8edd5239d178cef41b66b59d95de2681, type: 3}
    - {fileID: 21300000, guid: 32ff714eb29abca43b5603856f20ad4a, type: 3}
    - {fileID: 21300000, guid: df852a0b31be45d49bf407e981aa27a4, type: 3}
    - {fileID: 21300000, guid: 5c09e6cdba325fc4ba1ed82322df59a0, type: 3}
    - {fileID: 21300000, guid: ca821a4041e77914c853e2a961d22f28, type: 3}
  m_AnimationClipSettings:
    serializedVersion: 2
    m_AdditiveReferencePoseClip: {fileID: 0}
    m_AdditiveReferencePoseTime: 0
    m_StartTime: 0
    m_StopTime: 0.7833333
    m_OrientationOffsetY: 0
    m_Level: 0
    m_CycleOffset: 0
    m_HasAdditiveReferencePose: 0
    m_LoopTime: 1
    m_LoopBlend: 0
    m_LoopBlendOrientation: 0
    m_LoopBlendPositionY: 0
    m_LoopBlendPositionXZ: 0
    m_KeepOriginalOrientation: 0
    m_KeepOriginalPositionY: 1
    m_KeepOriginalPositionXZ: 0
    m_HeightFromFeet: 0
    m_Mirror: 0
  m_EditorCurves: []
  m_EulerEditorCurves: []
  m_HasGenericRootTransform: 0
  m_HasMotionFloatCurves: 0
  m_GenerateMotionCurves: 0
  m_Events:
  - time: 0.2
    functionName: PlayArrastando
    data: 
    objectReferenceParameter: {fileID: 0}
    floatParameter: 0
    intParameter: 0
    messageOptions: 0
